D:\repositorio\MavenExamples\src\main\java\co\edu\sena\mavenexamples\persistence\CourseDAO.java
D:\repositorio\MavenExamples\src\main\java\co\edu\sena\mavenexamples\controller\CourseController.java
D:\repositorio\MavenExamples\src\main\java\co\edu\sena\mavenexamples\controller\LateArrivalController.java
D:\repositorio\MavenExamples\src\main\java\co\edu\sena\mavenexamples\persistence\EntityManagerHelper.java
D:\repositorio\MavenExamples\src\main\java\co\edu\sena\mavenexamples\model\LateArrival.java
D:\repositorio\MavenExamples\src\main\java\co\edu\sena\mavenexamples\view\JFrameMailApprentice.java
D:\repositorio\MavenExamples\src\main\java\co\edu\sena\mavenexamples\persistence\IApprtenticeDAO.java
D:\repositorio\MavenExamples\src\main\java\co\edu\sena\mavenexamples\persistence\ApprenticeDAO.java
D:\repositorio\MavenExamples\src\main\java\co\edu\sena\mavenexamples\view\utils\Constants.java
D:\repositorio\MavenExamples\src\main\java\co\edu\sena\mavenexamples\model\Course.java
D:\repositorio\MavenExamples\src\main\java\co\edu\sena\mavenexamples\persistence\ILateArrivalDAO.java
D:\repositorio\MavenExamples\src\main\java\co\edu\sena\mavenexamples\controller\ApprenticeController.java
D:\repositorio\MavenExamples\src\main\java\co\edu\sena\mavenexamples\model\Apprentice.java
D:\repositorio\MavenExamples\src\main\java\co\edu\sena\mavenexamples\persistence\LateArrivalDAO.java
D:\repositorio\MavenExamples\src\main\java\co\edu\sena\mavenexamples\view\utils\MessageUtils.java
D:\repositorio\MavenExamples\src\main\java\co\edu\sena\mavenexamples\persistence\DAOFactory.java
D:\repositorio\MavenExamples\src\main\java\co\edu\sena\mavenexamples\persistence\ICourseDAO.java
D:\repositorio\MavenExamples\src\main\java\co\edu\sena\mavenexamples\view\JFrameCouserLate.java
